
{
  "header": {
    "reportVersion": 2,
    "event": "Allocation failed - JavaScript heap out of memory",
    "trigger": "FatalError",
    "filename": "report.20211019.162840.7044.0.001.json",
    "dumpEventTime": "2021-10-19T16:28:40Z",
    "dumpEventTimeStamp": "1634641120766",
    "processId": 7044,
    "threadId": null,
    "cwd": "D:\\SolarnewUi\\angular",
    "commandLine": [
      "node",
      "D:\\SolarnewUi\\angular\\node_modules\\.bin\\\\..\\@angular\\cli\\bin\\ng",
      "serve",
      "--host",
      "0.0.0.0",
      "--port",
      "4200"
    ],
    "nodejsVersion": "v12.16.3",
    "wordSize": 64,
    "arch": "x64",
    "platform": "win32",
    "componentVersions": {
      "node": "12.16.3",
      "v8": "7.8.279.23-node.35",
      "uv": "1.34.2",
      "zlib": "1.2.11",
      "brotli": "1.0.7",
      "ares": "1.16.0",
      "modules": "72",
      "nghttp2": "1.40.0",
      "napi": "5",
      "llhttp": "2.0.4",
      "http_parser": "2.9.3",
      "openssl": "1.1.1g",
      "cldr": "36.0",
      "icu": "65.1",
      "tz": "2019c",
      "unicode": "12.1"
    },
    "release": {
      "name": "node",
      "lts": "Erbium",
      "headersUrl": "https://nodejs.org/download/release/v12.16.3/node-v12.16.3-headers.tar.gz",
      "sourceUrl": "https://nodejs.org/download/release/v12.16.3/node-v12.16.3.tar.gz",
      "libUrl": "https://nodejs.org/download/release/v12.16.3/win-x64/node.lib"
    },
    "osName": "Windows_NT",
    "osRelease": "10.0.19042",
    "osVersion": "Windows 10 Pro",
    "osMachine": "x86_64",
    "cpus": [
      {
        "model": "Intel(R) Core(TM) i3-9100F CPU @ 3.60GHz",
        "speed": 3600,
        "user": 1899375,
        "nice": 0,
        "sys": 728734,
        "idle": 6636515,
        "irq": 55109
      },
      {
        "model": "Intel(R) Core(TM) i3-9100F CPU @ 3.60GHz",
        "speed": 3600,
        "user": 2401156,
        "nice": 0,
        "sys": 640062,
        "idle": 6223421,
        "irq": 9687
      },
      {
        "model": "Intel(R) Core(TM) i3-9100F CPU @ 3.60GHz",
        "speed": 3600,
        "user": 2255234,
        "nice": 0,
        "sys": 633765,
        "idle": 6375500,
        "irq": 8218
      },
      {
        "model": "Intel(R) Core(TM) i3-9100F CPU @ 3.60GHz",
        "speed": 3600,
        "user": 2272828,
        "nice": 0,
        "sys": 627500,
        "idle": 6364156,
        "irq": 7328
      }
    ],
    "networkInterfaces": [
      {
        "name": "Ethernet",
        "internal": false,
        "mac": "b4:2e:99:b8:b0:ec",
        "address": "fe80::5d44:aa05:92b1:4af9",
        "netmask": "ffff:ffff:ffff:ffff::",
        "family": "IPv6",
        "scopeid": 13
      },
      {
        "name": "Ethernet",
        "internal": false,
        "mac": "b4:2e:99:b8:b0:ec",
        "address": "192.168.0.175",
        "netmask": "255.255.255.0",
        "family": "IPv4"
      },
      {
        "name": "Loopback Pseudo-Interface 1",
        "internal": true,
        "mac": "00:00:00:00:00:00",
        "address": "::1",
        "netmask": "ffff:ffff:ffff:ffff:ffff:ffff:ffff:ffff",
        "family": "IPv6",
        "scopeid": 0
      },
      {
        "name": "Loopback Pseudo-Interface 1",
        "internal": true,
        "mac": "00:00:00:00:00:00",
        "address": "127.0.0.1",
        "netmask": "255.0.0.0",
        "family": "IPv4"
      }
    ],
    "host": "DESKTOP-N9MJIR3"
  },
  "javascriptStack": {
    "message": "No stack.",
    "stack": [
      "Unavailable."
    ]
  },
  "nativeStack": [
    {
      "pc": "0x00007ff7f1a42449",
      "symbol": "std::basic_ostream<char,std::char_traits<char> >::operator<<+11577"
    },
    {
      "pc": "0x00007ff7f1a469a9",
      "symbol": "std::basic_ostream<char,std::char_traits<char> >::operator<<+29337"
    },
    {
      "pc": "0x00007ff7f1a45828",
      "symbol": "std::basic_ostream<char,std::char_traits<char> >::operator<<+24856"
    },
    {
      "pc": "0x00007ff7f1b7d8c2",
      "symbol": "v8::base::CPU::has_sse+68658"
    },
    {
      "pc": "0x00007ff7f2399bbe",
      "symbol": "v8::Isolate::ReportExternalAllocationLimitReached+94"
    },
    {
      "pc": "0x00007ff7f2381c91",
      "symbol": "v8::SharedArrayBuffer::Externalize+833"
    },
    {
      "pc": "0x00007ff7f224e1ec",
      "symbol": "v8::internal::Heap::EphemeronKeyWriteBarrierFromCode+1436"
    },
    {
      "pc": "0x00007ff7f2259420",
      "symbol": "v8::internal::Heap::ProtectUnprotectedMemoryChunks+1312"
    },
    {
      "pc": "0x00007ff7f2255f44",
      "symbol": "v8::internal::Heap::PageFlagsAreConsistent+3204"
    },
    {
      "pc": "0x00007ff7f224b743",
      "symbol": "v8::internal::Heap::CollectGarbage+1283"
    },
    {
      "pc": "0x00007ff7f224ab34",
      "symbol": "v8::internal::Heap::CollectAllAvailableGarbage+196"
    },
    {
      "pc": "0x00007ff7f2249e34",
      "symbol": "v8::internal::Heap::AddRetainedMap+2580"
    },
    {
      "pc": "0x00007ff7f226b0fb",
      "symbol": "v8::internal::Factory::NewFixedArrayWithFiller+107"
    },
    {
      "pc": "0x00007ff7f226b081",
      "symbol": "v8::internal::Factory::NewFixedArray+65"
    },
    {
      "pc": "0x00007ff7f2147e3f",
      "symbol": "v8::debug::Script::GetIsolate+7631"
    },
    {
      "pc": "0x00007ff7f1ff8e6a",
      "symbol": "v8::internal::interpreter::JumpTableTargetOffsets::iterator::operator=+162938"
    },
    {
      "pc": "0x00007ff7f27e6c4d",
      "symbol": "v8::internal::SetupIsolateDelegate::SetupHeap+546637"
    },
    {
      "pc": "0x000000c66e2135d0",
      "symbol": ""
    }
  ],
  "javascriptHeap": {
    "totalMemory": 2161029120,
    "totalCommittedMemory": 2161029120,
    "usedMemory": 2123074392,
    "availableMemory": 38881088,
    "memoryLimit": 2197815296,
    "heapSpaces": {
      "read_only_space": {
        "memorySize": 262144,
        "committedMemory": 262144,
        "capacity": 32808,
        "used": 32808,
        "available": 0
      },
      "new_space": {
        "memorySize": 2097152,
        "committedMemory": 2097152,
        "capacity": 1047456,
        "used": 0,
        "available": 1047456
      },
      "old_space": {
        "memorySize": 1953378304,
        "committedMemory": 1953378304,
        "capacity": 1944421928,
        "used": 1944421928,
        "available": 0
      },
      "code_space": {
        "memorySize": 5935104,
        "committedMemory": 5935104,
        "capacity": 5277504,
        "used": 5277504,
        "available": 0
      },
      "map_space": {
        "memorySize": 30150656,
        "committedMemory": 30150656,
        "capacity": 4675440,
        "used": 4675440,
        "available": 0
      },
      "large_object_space": {
        "memorySize": 168583168,
        "committedMemory": 168583168,
        "capacity": 168122424,
        "used": 168122424,
        "available": 0
      },
      "code_large_object_space": {
        "memorySize": 622592,
        "committedMemory": 622592,
        "capacity": 544288,
        "used": 544288,
        "available": 0
      },
      "new_large_object_space": {
        "memorySize": 0,
        "committedMemory": 0,
        "capacity": 1047456,
        "used": 0,
        "available": 1047456
      }
    }
  },
  "resourceUsage": {
    "userCpuSeconds": 161.234,
    "kernelCpuSeconds": 7.343,
    "cpuConsumptionPercent": 138.178,
    "maxRss": 2377887744,
    "pageFaults": {
      "IORequired": 1468474,
      "IONotRequired": 0
    },
    "fsActivity": {
      "reads": 11378,
      "writes": 5
    }
  },
  "libuv": [
  ],
  "workers": [
  ],
  "environmentVariables": {
    "=D:": "D:\\SolarnewUi\\angular",
    "ALLUSERSPROFILE": "C:\\ProgramData",
    "APPDATA": "C:\\Users\\Admin\\AppData\\Roaming",
    "BROWSERSLIST_IGNORE_OLD_DATA": "1",
    "ChocolateyInstall": "C:\\ProgramData\\chocolatey",
    "ChocolateyLastPathUpdate": "132447177585713085",
    "CHROME_CRASHPAD_PIPE_NAME": "\\\\.\\pipe\\crashpad_1984_AVDYBTGEOIPOHRFH",
    "COLORTERM": "truecolor",
    "CommonProgramFiles": "C:\\Program Files\\Common Files",
    "CommonProgramFiles(x86)": "C:\\Program Files (x86)\\Common Files",
    "CommonProgramW6432": "C:\\Program Files\\Common Files",
    "COMPUTERNAME": "DESKTOP-N9MJIR3",
    "ComSpec": "C:\\WINDOWS\\system32\\cmd.exe",
    "DriverData": "C:\\Windows\\System32\\Drivers\\DriverData",
    "FPS_BROWSER_APP_PROFILE_STRING": "Internet Explorer",
    "FPS_BROWSER_USER_PROFILE_STRING": "Default",
    "HOME": "C:\\Users\\Admin",
    "HOMEDRIVE": "C:",
    "HOMEPATH": "\\Users\\Admin",
    "INIT_CWD": "D:\\SolarnewUi\\angular",
    "LANG": "en_US.UTF-8",
    "LOCALAPPDATA": "C:\\Users\\Admin\\AppData\\Local",
    "LOGONSERVER": "\\\\DESKTOP-N9MJIR3",
    "NODE": "C:\\Program Files\\nodejs\\node.exe",
    "NODE_EXE": "C:\\Program Files\\nodejs\\\\node.exe",
    "NPM_CLI_JS": "C:\\Program Files\\nodejs\\\\node_modules\\npm\\bin\\npm-cli.js",
    "npm_config_access": "",
    "npm_config_allow_same_version": "",
    "npm_config_also": "",
    "npm_config_always_auth": "",
    "npm_config_argv": "{\"remain\":[],\"cooked\":[\"start\"],\"original\":[\"start\"]}",
    "npm_config_audit": "true",
    "npm_config_audit_level": "low",
    "npm_config_auth_type": "legacy",
    "npm_config_before": "",
    "npm_config_bin_links": "true",
    "npm_config_browser": "",
    "npm_config_ca": "",
    "npm_config_cache": "C:\\Users\\Admin\\AppData\\Roaming\\npm-cache",
    "npm_config_cache_lock_retries": "10",
    "npm_config_cache_lock_stale": "60000",
    "npm_config_cache_lock_wait": "10000",
    "npm_config_cache_max": "Infinity",
    "npm_config_cache_min": "10",
    "npm_config_cafile": "",
    "npm_config_cert": "",
    "npm_config_cidr": "",
    "npm_config_color": "true",
    "npm_config_commit_hooks": "true",
    "npm_config_depth": "Infinity",
    "npm_config_description": "true",
    "npm_config_dev": "",
    "npm_config_dry_run": "",
    "npm_config_editor": "notepad.exe",
    "npm_config_engine_strict": "",
    "npm_config_fetch_retries": "2",
    "npm_config_fetch_retry_factor": "10",
    "npm_config_fetch_retry_maxtimeout": "60000",
    "npm_config_fetch_retry_mintimeout": "10000",
    "npm_config_force": "",
    "npm_config_format_package_lock": "true",
    "npm_config_fund": "true",
    "npm_config_git": "git",
    "npm_config_git_tag_version": "true",
    "npm_config_global": "",
    "npm_config_globalconfig": "C:\\Users\\Admin\\AppData\\Roaming\\npm\\etc\\npmrc",
    "npm_config_globalignorefile": "C:\\Users\\Admin\\AppData\\Roaming\\npm\\etc\\npmignore",
    "npm_config_global_style": "",
    "npm_config_group": "",
    "npm_config_ham_it_up": "",
    "npm_config_heading": "npm",
    "npm_config_https_proxy": "",
    "npm_config_if_present": "",
    "npm_config_ignore_prepublish": "",
    "npm_config_ignore_scripts": "",
    "npm_config_init_author_email": "",
    "npm_config_init_author_name": "",
    "npm_config_init_author_url": "",
    "npm_config_init_license": "ISC",
    "npm_config_init_module": "C:\\Users\\Admin\\.npm-init.js",
    "npm_config_init_version": "1.0.0",
    "npm_config_json": "",
    "npm_config_key": "",
    "npm_config_legacy_bundling": "",
    "npm_config_link": "",
    "npm_config_local_address": "",
    "npm_config_loglevel": "notice",
    "npm_config_logs_max": "10",
    "npm_config_long": "",
    "npm_config_maxsockets": "50",
    "npm_config_message": "%s",
    "npm_config_metrics_registry": "https://registry.npmjs.org/",
    "npm_config_node_gyp": "C:\\Program Files\\nodejs\\node_modules\\npm\\node_modules\\node-gyp\\bin\\node-gyp.js",
    "npm_config_node_options": "",
    "npm_config_node_version": "12.16.3",
    "npm_config_noproxy": "",
    "npm_config_offline": "",
    "npm_config_onload_script": "",
    "npm_config_only": "",
    "npm_config_optional": "true",
    "npm_config_otp": "",
    "npm_config_package_lock": "true",
    "npm_config_package_lock_only": "",
    "npm_config_parseable": "",
    "npm_config_prefer_offline": "",
    "npm_config_prefer_online": "",
    "npm_config_prefix": "C:\\Users\\Admin\\AppData\\Roaming\\npm",
    "npm_config_preid": "",
    "npm_config_production": "",
    "npm_config_progress": "true",
    "npm_config_proxy": "",
    "npm_config_read_only": "",
    "npm_config_rebuild_bundle": "true",
    "npm_config_registry": "https://registry.npmjs.org/",
    "npm_config_rollback": "true",
    "npm_config_save": "true",
    "npm_config_save_bundle": "",
    "npm_config_save_dev": "",
    "npm_config_save_exact": "",
    "npm_config_save_optional": "",
    "npm_config_save_prefix": "^",
    "npm_config_save_prod": "",
    "npm_config_scope": "",
    "npm_config_scripts_prepend_node_path": "warn-only",
    "npm_config_script_shell": "",
    "npm_config_searchexclude": "",
    "npm_config_searchlimit": "20",
    "npm_config_searchopts": "",
    "npm_config_searchstaleness": "900",
    "npm_config_send_metrics": "",
    "npm_config_shell": "C:\\WINDOWS\\system32\\cmd.exe",
    "npm_config_shrinkwrap": "true",
    "npm_config_sign_git_commit": "",
    "npm_config_sign_git_tag": "",
    "npm_config_sso_poll_frequency": "500",
    "npm_config_sso_type": "oauth",
    "npm_config_strict_ssl": "true",
    "npm_config_tag": "latest",
    "npm_config_tag_version_prefix": "v",
    "npm_config_timing": "",
    "npm_config_tmp": "C:\\Users\\Admin\\AppData\\Local\\Temp",
    "npm_config_umask": "0000",
    "npm_config_unicode": "",
    "npm_config_unsafe_perm": "true",
    "npm_config_update_notifier": "true",
    "npm_config_usage": "",
    "npm_config_user": "",
    "npm_config_userconfig": "C:\\Users\\Admin\\.npmrc",
    "npm_config_user_agent": "npm/6.14.4 node/v12.16.3 win32 x64",
    "npm_config_version": "",
    "npm_config_versions": "",
    "npm_config_viewer": "browser",
    "npm_execpath": "C:\\Program Files\\nodejs\\node_modules\\npm\\bin\\npm-cli.js",
    "npm_lifecycle_event": "start",
    "npm_lifecycle_script": "gulp buildDev && ng serve --host 0.0.0.0 --port 4200",
    "npm_node_execpath": "C:\\Program Files\\nodejs\\node.exe",
    "npm_package_dependencies_abp_ng2_module": "^6.0.0",
    "npm_package_dependencies_abp_web_resources": "^5.2.0",
    "npm_package_dependencies_adal_angular": "^1.0.17",
    "npm_package_dependencies_angular2_counto": "^1.2.5",
    "npm_package_dependencies_angular2_text_mask": "^9.0.0",
    "npm_package_dependencies_angular_editor": "0.0.3",
    "npm_package_dependencies_angular_email_editor": "^0.7.1",
    "npm_package_dependencies_angular_gridster2": "^9.1.0",
    "npm_package_dependencies_angular_oauth2_oidc": "^9.2.0",
    "npm_package_dependencies_animate_css": "^3.7.2",
    "npm_package_dependencies_chart_js": "^2.9.3",
    "npm_package_dependencies_cookieconsent": "^3.1.1",
    "npm_package_dependencies_core_js": "^3.6.4",
    "npm_package_dependencies_famfamfam_flags": "^1.0.0",
    "npm_package_dependencies_js_cookie": "^2.2.1",
    "npm_package_dependencies_just_compare": "^1.3.0",
    "npm_package_dependencies_localforage": "^1.7.3",
    "npm_package_dependencies_lodash": "^4.17.13",
    "npm_package_dependencies_moment": "^2.24.0",
    "npm_package_dependencies_moment_timezone": "^0.5.28",
    "npm_package_dependencies_msal": "^1.2.2",
    "npm_package_dependencies_ng2_file_upload": "^1.4.0",
    "npm_package_dependencies_ngx_bootstrap": "^5.6.1",
    "npm_package_dependencies_ngx_captcha": "^8.0.1",
    "npm_package_dependencies_ngx_image_cropper": "^3.1.4",
    "npm_package_dependencies_ngx_perfect_scrollbar": "^9.0.0",
    "npm_package_dependencies_ngx_select_dropdown": "^2.1.0",
    "npm_package_dependencies_ngx_spinner": "^9.0.1",
    "npm_package_dependencies_ng_multiselect_dropdown": "^0.3.4",
    "npm_package_dependencies_ng_pick_datetime": "^7.0.0",
    "npm_package_dependencies_object_path": "^0.11.4",
    "npm_package_dependencies_primeicons": "^2.0.0",
    "npm_package_dependencies_primeng": "^9.0.3",
    "npm_package_dependencies_push_js": "^1.0.12",
    "npm_package_dependencies_quill": "^1.3.7",
    "npm_package_dependencies_rtl_detect": "^1.0.2",
    "npm_package_dependencies_rxjs": "^6.5.4",
    "npm_package_dependencies_simple_line_icons": "^2.4.1",
    "npm_package_dependencies_sweetalert2": "^9.10.7",
    "npm_package_dependencies_text_mask_addons": "^3.8.0",
    "npm_package_dependencies_tslib": "^1.11.1",
    "npm_package_dependencies_webdriver_manager": "^12.1.7",
    "npm_package_dependencies_zone_js": "~0.10.2",
    "npm_package_dependencies__agm_core": "^1.1.0",
    "npm_package_dependencies__angular_animations": "^9.1.11",
    "npm_package_dependencies__angular_cdk": "^9.2.4",
    "npm_package_dependencies__angular_common": "^9.1.0",
    "npm_package_dependencies__angular_compiler": "^9.1.0",
    "npm_package_dependencies__angular_core": "^9.1.0",
    "npm_package_dependencies__angular_flex_layout": "^9.0.0-beta.31",
    "npm_package_dependencies__angular_forms": "^9.1.11",
    "npm_package_dependencies__angular_material": "^9.2.4",
    "npm_package_dependencies__angular_material_extensions_google_maps_autocomplete": "^4.1.0",
    "npm_package_dependencies__angular_platform_browser": "^9.1.0",
    "npm_package_dependencies__angular_platform_browser_dynamic": "^9.1.0",
    "npm_package_dependencies__angular_platform_server": "^9.1.0",
    "npm_package_dependencies__angular_router": "^9.1.0",
    "npm_package_dependencies__fullcalendar_angular": "^5.3.0",
    "npm_package_dependencies__fullcalendar_core": "^4.4.0",
    "npm_package_dependencies__fullcalendar_daygrid": "^5.3.0",
    "npm_package_dependencies__fullcalendar_interaction": "^5.3.0",
    "npm_package_dependencies__fullcalendar_timegrid": "^5.3.0",
    "npm_package_dependencies__kolkov_angular_editor": "^1.2.0",
    "npm_package_dependencies__microsoft_signalr": "^3.1.3",
    "npm_package_dependencies__ng_select_ng_select": "^7.0.1",
    "npm_package_dependencies__swimlane_ngx_charts": "^13.0.2",
    "npm_package_dependencies__types_googlemaps": "^3.39.2",
    "npm_package_description": "See documentation: https://www.aspnetzero.com/Documents/Getting-Started-Angular",
    "npm_package_devDependencies_codelyzer": "^5.2.2",
    "npm_package_devDependencies_gulp": "^4.0.1",
    "npm_package_devDependencies_gulp_clean_css": "^4.3.0",
    "npm_package_devDependencies_gulp_concat": "^2.6.1",
    "npm_package_devDependencies_gulp_less": "^4.0.1",
    "npm_package_devDependencies_gulp_postcss": "^8.0.0",
    "npm_package_devDependencies_gulp_uglify": "^3.0.2",
    "npm_package_devDependencies_jasmine_core": "~3.5.0",
    "npm_package_devDependencies_jasmine_spec_reporter": "^5.0.1",
    "npm_package_devDependencies_karma": "^6.0.0",
    "npm_package_devDependencies_karma_chrome_launcher": "~3.1.0",
    "npm_package_devDependencies_karma_cli": "~2.0.0",
    "npm_package_devDependencies_karma_coverage_istanbul_reporter": "^2.1.1",
    "npm_package_devDependencies_karma_jasmine": "~3.1.1",
    "npm_package_devDependencies_karma_jasmine_html_reporter": "^1.5.3",
    "npm_package_devDependencies_merge_stream": "^2.0.0",
    "npm_package_devDependencies_nswag": "13.3.0",
    "npm_package_devDependencies_postcss_url": "^9.0.0",
    "npm_package_devDependencies_protractor": "~5.4.3",
    "npm_package_devDependencies_tslint": "~6.1.0",
    "npm_package_devDependencies_ts_node": "~8.8.1",
    "npm_package_devDependencies_typescript": "3.8.3",
    "npm_package_devDependencies__angularclass_hmr": "^2.1.3",
    "npm_package_devDependencies__angularclass_hmr_loader": "^3.0.4",
    "npm_package_devDependencies__angular_cli": "^9.1.0",
    "npm_package_devDependencies__angular_compiler_cli": "^9.1.0",
    "npm_package_devDependencies__angular_devkit_build_angular": "~0.901.0",
    "npm_package_devDependencies__types_jasmine": "~3.5.10",
    "npm_package_devDependencies__types_jasminewd2": "^2.0.8",
    "npm_package_devDependencies__types_lodash": "^4.14.149",
    "npm_package_devDependencies__types_moment_timezone": "^0.5.13",
    "npm_package_devDependencies__types_node": "^13.9.5",
    "npm_package_license": "MIT",
    "npm_package_name": "abp-zero-template",
    "npm_package_private": "false",
    "npm_package_readmeFilename": "README.md",
    "npm_package_scripts_create_dynamic_bundles": "gulp buildDev",
    "npm_package_scripts_e2e": "gulp buildDev && protractor",
    "npm_package_scripts_hmr": "gulp buildDev && ng serve --host 0.0.0.0 --port 4200 --hmr",
    "npm_package_scripts_ng": "ng",
    "npm_package_scripts_nswag": "cd nswag/ && refresh.bat",
    "npm_package_scripts_pree2e": "webdriver-manager update --standalone false --gecko false",
    "npm_package_scripts_publish": "gulp build && ng build --prod",
    "npm_package_scripts_start": "gulp buildDev && ng serve --host 0.0.0.0 --port 4200",
    "npm_package_scripts_test": "gulp buildDev && ng test",
    "npm_package_version": "8.9.2",
    "NPM_PREFIX_NPM_CLI_JS": "C:\\Users\\Admin\\AppData\\Roaming\\npm\\node_modules\\npm\\bin\\npm-cli.js",
    "NUMBER_OF_PROCESSORS": "4",
    "OneDrive": "C:\\Users\\Admin\\OneDrive",
    "OneDriveConsumer": "C:\\Users\\Admin\\OneDrive",
    "ORIGINAL_XDG_CURRENT_DESKTOP": "undefined",
    "OS": "Windows_NT",
    "Path": "C:\\Program Files\\nodejs\\node_modules\\npm\\node_modules\\npm-lifecycle\\node-gyp-bin;D:\\SolarnewUi\\angular\\node_modules\\.bin;C:\\Python39\\Scripts\\;C:\\Python39\\;C:\\Python38\\Scripts\\;C:\\Python38\\;C:\\WINDOWS\\system32;C:\\WINDOWS;C:\\WINDOWS\\System32\\Wbem;C:\\WINDOWS\\System32\\WindowsPowerShell\\v1.0\\;C:\\WINDOWS\\System32\\OpenSSH\\;C:\\Program Files\\dotnet\\;C:\\Program Files\\Microsoft SQL Server\\130\\Tools\\Binn\\;C:\\Program Files\\Microsoft SQL Server\\Client SDK\\ODBC\\170\\Tools\\Binn\\;C:\\ProgramData\\chocolatey\\bin;C:\\Program Files (x86)\\Microsoft SQL Server\\150\\DTS\\Binn\\;C:\\Program Files\\Microsoft SQL Server\\Client SDK\\ODBC\\130\\Tools\\Binn\\;C:\\Program Files (x86)\\Microsoft SQL Server\\140\\Tools\\Binn\\;C:\\Program Files\\Microsoft SQL Server\\140\\Tools\\Binn\\;C:\\Program Files\\Microsoft SQL Server\\140\\DTS\\Binn\\;C:\\Program Files\\nodejs\\;C:\\Users\\Admin\\AppData\\Local\\Microsoft\\WindowsApps;C:\\Users\\Admin\\.dotnet\\tools;C:\\Users\\Admin\\AppData\\Local\\Programs\\Microsoft VS Code\\bin;C:\\Users\\Admin\\AppData\\Roaming\\npm",
    "PATHEXT": ".COM;.EXE;.BAT;.CMD;.VBS;.VBE;.JSE;.WSF;.WSH;.MSC;.PY;.PYW;.CPL",
    "PROCESSOR_ARCHITECTURE": "AMD64",
    "PROCESSOR_IDENTIFIER": "Intel64 Family 6 Model 158 Stepping 10, GenuineIntel",
    "PROCESSOR_LEVEL": "6",
    "PROCESSOR_REVISION": "9e0a",
    "ProgramData": "C:\\ProgramData",
    "ProgramFiles": "C:\\Program Files",
    "ProgramFiles(x86)": "C:\\Program Files (x86)",
    "ProgramW6432": "C:\\Program Files",
    "PROMPT": "$P$G",
    "PSModulePath": "C:\\Users\\Admin\\OneDrive\\Documents\\WindowsPowerShell\\Modules;C:\\Program Files\\WindowsPowerShell\\Modules;C:\\WINDOWS\\system32\\WindowsPowerShell\\v1.0\\Modules;C:\\Program Files (x86)\\Microsoft SQL Server\\140\\Tools\\PowerShell\\Modules\\",
    "PUBLIC": "C:\\Users\\Public",
    "SESSIONNAME": "Console",
    "SystemDrive": "C:",
    "SystemRoot": "C:\\WINDOWS",
    "TEMP": "C:\\Users\\Admin\\AppData\\Local\\Temp",
    "TERM_PROGRAM": "vscode",
    "TERM_PROGRAM_VERSION": "1.61.1",
    "TMP": "C:\\Users\\Admin\\AppData\\Local\\Temp",
    "USERDOMAIN": "DESKTOP-N9MJIR3",
    "USERDOMAIN_ROAMINGPROFILE": "DESKTOP-N9MJIR3",
    "USERNAME": "Admin",
    "USERPROFILE": "C:\\Users\\Admin",
    "WEBPACK_DEV_SERVER": "true",
    "windir": "C:\\WINDOWS"
  },
  "sharedObjects": [
    "C:\\Program Files\\nodejs\\node.exe",
    "C:\\WINDOWS\\SYSTEM32\\ntdll.dll",
    "C:\\WINDOWS\\System32\\KERNEL32.DLL",
    "C:\\WINDOWS\\System32\\KERNELBASE.dll",
    "C:\\WINDOWS\\System32\\WS2_32.dll",
    "C:\\WINDOWS\\System32\\RPCRT4.dll",
    "C:\\WINDOWS\\System32\\PSAPI.DLL",
    "C:\\WINDOWS\\SYSTEM32\\dbghelp.dll",
    "C:\\WINDOWS\\System32\\ADVAPI32.dll",
    "C:\\WINDOWS\\System32\\ucrtbase.dll",
    "C:\\WINDOWS\\System32\\msvcrt.dll",
    "C:\\WINDOWS\\SYSTEM32\\IPHLPAPI.DLL",
    "C:\\WINDOWS\\System32\\sechost.dll",
    "C:\\WINDOWS\\SYSTEM32\\USERENV.dll",
    "C:\\WINDOWS\\System32\\USER32.dll",
    "C:\\WINDOWS\\System32\\win32u.dll",
    "C:\\WINDOWS\\System32\\GDI32.dll",
    "C:\\WINDOWS\\System32\\gdi32full.dll",
    "C:\\WINDOWS\\System32\\msvcp_win.dll",
    "C:\\WINDOWS\\System32\\CRYPT32.dll",
    "C:\\WINDOWS\\System32\\bcrypt.dll",
    "C:\\WINDOWS\\SYSTEM32\\WINMM.dll",
    "C:\\WINDOWS\\System32\\IMM32.DLL",
    "C:\\WINDOWS\\SYSTEM32\\powrprof.dll",
    "C:\\WINDOWS\\SYSTEM32\\UMPDC.dll",
    "C:\\WINDOWS\\SYSTEM32\\CRYPTBASE.DLL",
    "C:\\WINDOWS\\system32\\uxtheme.dll",
    "C:\\WINDOWS\\System32\\combase.dll",
    "C:\\WINDOWS\\system32\\mswsock.dll",
    "C:\\WINDOWS\\SYSTEM32\\kernel.appcore.dll",
    "C:\\WINDOWS\\System32\\bcryptprimitives.dll",
    "C:\\WINDOWS\\System32\\NSI.dll",
    "C:\\WINDOWS\\SYSTEM32\\dhcpcsvc6.DLL",
    "C:\\WINDOWS\\SYSTEM32\\dhcpcsvc.DLL",
    "C:\\WINDOWS\\SYSTEM32\\DNSAPI.dll",
    "C:\\WINDOWS\\system32\\napinsp.dll",
    "C:\\WINDOWS\\system32\\pnrpnsp.dll",
    "C:\\WINDOWS\\system32\\wshbth.dll",
    "C:\\WINDOWS\\system32\\NLAapi.dll",
    "C:\\WINDOWS\\System32\\winrnr.dll"
  ]
}