<svg width="199" height="37" viewBox="0 0 199 37" fill="none" xmlns="http://www.w3.org/2000/svg">
<g clip-path="url(#clip0)">
<path d="M18.6067 10.84H12.8867V10.04C12.8867 9.16 12.5934 8.45333 12.0067 7.92C11.42 7.38667 10.6467 7.12 9.68669 7.12C8.75335 7.12 8.02002 7.34666 7.48669 7.8C6.98002 8.25333 6.72669 8.85333 6.72669 9.6C6.72669 10.8 7.48669 11.6533 9.00669 12.16L12.4467 13.36C13.46 13.7067 14.3 14.0667 14.9667 14.44C15.66 14.7867 16.3534 15.2533 17.0467 15.84C17.74 16.4267 18.26 17.1733 18.6067 18.08C18.98 18.9867 19.1667 20.0267 19.1667 21.2C19.1667 23.6267 18.3267 25.6 16.6467 27.12C14.9667 28.64 12.7534 29.4 10.0067 29.4C7.18002 29.4 4.88669 28.68 3.12669 27.24C1.39335 25.8 0.526687 23.88 0.526687 21.48V20.52H6.24669V21.68C6.24669 22.64 6.55335 23.3733 7.16669 23.88C7.80669 24.36 8.70002 24.6 9.84669 24.6C11.02 24.6 11.9134 24.3467 12.5267 23.84C13.1667 23.3333 13.4867 22.6667 13.4867 21.84C13.4867 20.4533 12.7534 19.5067 11.2867 19L7.16669 17.52C5.11335 16.7733 3.58002 15.8 2.56669 14.6C1.58002 13.4 1.08669 11.8667 1.08669 10C1.08669 7.86667 1.86002 6.05333 3.40669 4.56C4.98002 3.06667 7.07335 2.32 9.68669 2.32C12.38 2.32 14.54 3.04 16.1667 4.48C17.7934 5.89333 18.6067 7.81333 18.6067 10.24V10.84ZM27.812 16.6V21.8C27.812 22.6533 28.0387 23.3467 28.492 23.88C28.972 24.4133 29.612 24.68 30.412 24.68C31.212 24.68 31.8387 24.4133 32.292 23.88C32.772 23.3467 33.012 22.6533 33.012 21.8V16.6C33.012 15.7467 32.772 15.0533 32.292 14.52C31.8387 13.9867 31.212 13.72 30.412 13.72C29.612 13.72 28.972 13.9867 28.492 14.52C28.0387 15.0533 27.812 15.7467 27.812 16.6ZM38.612 17V21.4C38.612 23.8267 37.852 25.7733 36.332 27.24C34.8387 28.68 32.8653 29.4 30.412 29.4C27.9587 29.4 25.972 28.68 24.452 27.24C22.9587 25.7733 22.212 23.8267 22.212 21.4V17C22.212 14.5733 22.9587 12.64 24.452 11.2C25.972 9.73333 27.9587 9 30.412 9C32.8653 9 34.8387 9.73333 36.332 11.2C37.852 12.64 38.612 14.5733 38.612 17ZM42.5014 1.92H48.1014V29H42.5014V1.92ZM52.0576 21.64V16.76C52.0576 14.44 52.6176 12.5733 53.7376 11.16C54.8843 9.72 56.5243 9 58.6576 9C60.5776 9 62.0976 9.69333 63.2176 11.08L63.5376 9.4H68.4576V29H63.5376L63.2176 27.32C62.151 28.7067 60.631 29.4 58.6576 29.4C56.5243 29.4 54.8843 28.6933 53.7376 27.28C52.6176 25.84 52.0576 23.96 52.0576 21.64ZM58.2976 23.72C58.751 24.2533 59.3776 24.52 60.1776 24.52C60.9776 24.52 61.6176 24.2533 62.0976 23.72C62.6043 23.1867 62.8576 22.4933 62.8576 21.64V16.76C62.8576 15.9067 62.6043 15.2133 62.0976 14.68C61.6176 14.1467 60.9776 13.88 60.1776 13.88C59.3776 13.88 58.751 14.1467 58.2976 14.68C57.871 15.2133 57.6576 15.9067 57.6576 16.76V21.64C57.6576 22.4933 57.871 23.1867 58.2976 23.72ZM78.6092 29H73.0092V9.4H77.9292L78.3292 11.52C79.3692 9.84 80.7692 9 82.5292 9C82.9825 9 83.4092 9.05333 83.8092 9.16V14.44C83.1959 14.3067 82.5825 14.24 81.9692 14.24C79.7292 14.24 78.6092 15.2267 78.6092 17.2V29ZM94.2314 29V2.72H104.271C106.725 2.72 108.725 3.36 110.271 4.64C111.818 5.92 112.591 7.6 112.591 9.68C112.591 12.48 111.351 14.4 108.871 15.44V15.48C111.778 16.52 113.231 18.5867 113.231 21.68C113.231 23.92 112.458 25.7067 110.911 27.04C109.391 28.3467 107.391 29 104.911 29H94.2314ZM103.871 18.04H99.9914V24.32H103.871C104.965 24.32 105.805 24.04 106.391 23.48C106.978 22.92 107.271 22.1467 107.271 21.16C107.271 20.2267 106.965 19.48 106.351 18.92C105.738 18.3333 104.911 18.04 103.871 18.04ZM103.471 7.4H99.9914V13.28H103.471C104.458 13.28 105.231 13.0267 105.791 12.52C106.378 11.9867 106.671 11.24 106.671 10.28C106.671 9.34667 106.391 8.64 105.831 8.16C105.271 7.65333 104.485 7.4 103.471 7.4ZM122.515 29H116.915V9.4H121.835L122.235 11.52C123.275 9.84 124.675 9 126.435 9C126.889 9 127.315 9.05333 127.715 9.16V14.44C127.102 14.3067 126.489 14.24 125.875 14.24C123.635 14.24 122.515 15.2267 122.515 17.2V29ZM131.304 6.4C130.718 5.78667 130.424 5.05333 130.424 4.2C130.424 3.34667 130.718 2.62667 131.304 2.04C131.918 1.42667 132.651 1.12 133.504 1.12C134.358 1.12 135.078 1.42667 135.664 2.04C136.278 2.62667 136.584 3.34667 136.584 4.2C136.584 5.05333 136.278 5.78667 135.664 6.4C135.078 6.98667 134.358 7.28 133.504 7.28C132.651 7.28 131.918 6.98667 131.304 6.4ZM130.704 9.4H136.304V29H130.704V9.4ZM151.741 29L151.421 27.32C150.354 28.7067 148.834 29.4 146.861 29.4C144.727 29.4 143.087 28.6933 141.941 27.28C140.821 25.84 140.261 23.96 140.261 21.64V16.76C140.261 14.44 140.821 12.5733 141.941 11.16C143.087 9.72 144.727 9 146.861 9C148.594 9 149.994 9.56 151.061 10.68V1.92H156.661V29H151.741ZM146.501 23.72C146.954 24.2533 147.581 24.52 148.381 24.52C149.181 24.52 149.821 24.2533 150.301 23.72C150.807 23.1867 151.061 22.4933 151.061 21.64V16.76C151.061 15.9067 150.807 15.2133 150.301 14.68C149.821 14.1467 149.181 13.88 148.381 13.88C147.581 13.88 146.954 14.1467 146.501 14.68C146.074 15.2133 145.861 15.9067 145.861 16.76V21.64C145.861 22.4933 146.074 23.1867 146.501 23.72ZM160.612 20.84V16.76C160.612 14.44 161.172 12.5733 162.292 11.16C163.439 9.72 165.079 9 167.212 9C169.132 9 170.652 9.69333 171.772 11.08L172.092 9.4H177.012V29.48C177.012 31.72 176.266 33.5067 174.772 34.84C173.279 36.2 171.319 36.88 168.892 36.88C166.492 36.88 164.546 36.2667 163.052 35.04C161.559 33.84 160.812 32.2933 160.812 30.4V30.28H166.212V30.6C166.212 31.16 166.426 31.6133 166.852 31.96C167.306 32.3067 167.959 32.48 168.812 32.48C170.546 32.48 171.412 31.52 171.412 29.6V26.96C170.372 28.0533 168.972 28.6 167.212 28.6C165.079 28.6 163.439 27.8933 162.292 26.48C161.172 25.04 160.612 23.16 160.612 20.84ZM166.852 22.92C167.306 23.4533 167.932 23.72 168.732 23.72C169.532 23.72 170.172 23.4533 170.652 22.92C171.159 22.3867 171.412 21.6933 171.412 20.84V16.76C171.412 15.9067 171.159 15.2133 170.652 14.68C170.172 14.1467 169.532 13.88 168.732 13.88C167.932 13.88 167.306 14.1467 166.852 14.68C166.426 15.2133 166.212 15.9067 166.212 16.76V20.84C166.212 21.6933 166.426 22.3867 166.852 22.92ZM191.484 22.08H196.804V22.2C196.804 24.3867 196.084 26.1333 194.644 27.44C193.204 28.7467 191.311 29.4 188.964 29.4C186.537 29.4 184.577 28.68 183.084 27.24C181.617 25.7733 180.884 23.8267 180.884 21.4V17C180.884 14.5733 181.617 12.64 183.084 11.2C184.577 9.73333 186.537 9 188.964 9C191.311 9 193.204 9.73333 194.644 11.2C196.084 12.64 196.804 14.5733 196.804 17V20.32H186.364V22C186.364 22.88 186.604 23.6 187.084 24.16C187.591 24.6933 188.244 24.96 189.044 24.96C189.817 24.96 190.417 24.72 190.844 24.24C191.271 23.76 191.484 23.1067 191.484 22.28V22.08ZM186.364 16.32V16.6H191.484V16.32C191.484 15.4667 191.257 14.7733 190.804 14.24C190.351 13.7067 189.737 13.44 188.964 13.44C188.164 13.44 187.524 13.7067 187.044 14.24C186.591 14.7733 186.364 15.4667 186.364 16.32Z" fill="#FF5500"/>
</g>
<defs>
<clipPath id="clip0">
<rect width="199" height="37" fill="white"/>
</clipPath>
</defs>
</svg>
