<svg xmlns="http://www.w3.org/2000/svg" xmlns:xlink="http://www.w3.org/1999/xlink" width="217.003" height="109" viewBox="0 0 217.003 109">
  <defs>
    <filter id="Ellipse_2" x="0" y="0" width="107" height="109" filterUnits="userSpaceOnUse">
      <feOffset dy="5" input="SourceAlpha"/>
      <feGaussianBlur stdDeviation="5" result="blur"/>
      <feFlood flood-color="#fa0" flood-opacity="0.271"/>
      <feComposite operator="in" in2="blur"/>
      <feComposite in="SourceGraphic"/>
    </filter>
    <filter id="Path_1" x="9.545" y="6.2" width="88.928" height="90.814" filterUnits="userSpaceOnUse">
      <feOffset dy="3" input="SourceAlpha"/>
      <feGaussianBlur stdDeviation="3" result="blur-2"/>
      <feFlood flood-opacity="0.161"/>
      <feComposite operator="in" in2="blur-2"/>
      <feComposite in="SourceGraphic"/>
    </filter>
  </defs>
  <g id="Group_1" data-name="Group 1" transform="translate(-1339 -394)">
    <g id="Group_309" data-name="Group 309" transform="translate(-119.997 174)">
      <g id="Group_2" data-name="Group 2" transform="translate(966.015 -270)">
        <text id="The" transform="translate(601.985 522)" fill="#fff" font-size="19" font-family="SegoeUI, Segoe UI" letter-spacing="-0.03em"><tspan x="0" y="0">The</tspan></text>
        <text id="Product" transform="translate(641.985 574)" fill="#fff" font-size="19" font-family="SegoeUI, Segoe UI" letter-spacing="-0.03em"><tspan x="0" y="0">Product</tspan></text>
      </g>
      <g id="Group_3" data-name="Group 3" transform="translate(1210.347 -263)">
        <g transform="matrix(1, 0, 0, 1, 248.65, 483)" filter="url(#Ellipse_2)">
          <ellipse id="Ellipse_2-2" data-name="Ellipse 2" cx="38.5" cy="39.5" rx="38.5" ry="39.5" transform="translate(15 10)" fill="#fa0"/>
        </g>
        <g transform="matrix(1, 0, 0, 1, 248.65, 483)" filter="url(#Path_1)">
          <path id="Path_1-2" data-name="Path 1" d="M50.036,17.387V37.814a7.156,7.156,0,0,1-3.6,6.2L28.627,54.231a7.265,7.265,0,0,1-7.216,0L3.614,44.017a7.089,7.089,0,0,1-1.958-1.656A7.038,7.038,0,0,1,0,37.814V17.387a7.15,7.15,0,0,1,3.614-6.214L21.411.96a7.26,7.26,0,0,1,7.216,0L43.546,9.517l2.889,1.656a7.163,7.163,0,0,1,3.6,6.214Z" transform="translate(46.14 12.2) rotate(30)" fill="#fff"/>
        </g>
      </g>
      <g id="Group_308" data-name="Group 308">
        <g id="Group_307" data-name="Group 307">
          <text id="solar" transform="translate(1564 285)" fill="#fff" font-size="52" font-family="SegoeUI-Bold, Segoe UI" font-weight="700" letter-spacing="-0.03em"><tspan x="0" y="0">solar</tspan></text>
        </g>
      </g>
    </g>
  </g>
</svg>
