<svg xmlns="http://www.w3.org/2000/svg" width="73.116" height="81.5" viewBox="0 0 73.116 81.5">
  <g id="icon_import" transform="translate(1 1)">
    <path id="Path_68" data-name="Path 68" d="M0,40.2a2,2,0,0,1,2-2H48.924L37.387,25.957A2,2,0,0,1,40.3,23.213L55.024,38.84a2,2,0,0,1,0,2.744L40.3,57.205a2,2,0,1,1-2.91-2.744L48.947,42.2H2A2,2,0,0,1,0,40.2Z" fill="#414141" stroke="#414141" stroke-width="2"/>
    <path id="Path_69" data-name="Path 69" d="M71.116,2V77.5a2,2,0,0,1-2,2H11a2,2,0,0,1-2-2V60.2a2,2,0,1,1,4,0V75.5H67.116V4H13V18.4a2,2,0,1,1-4,0V2a2,2,0,0,1,2-2H69.116A2,2,0,0,1,71.116,2Z" fill="#414141" stroke="#414141" stroke-width="2"/>
  </g>
</svg>
