<svg width="80" height="80" viewBox="0 0 80 80" fill="none" xmlns="http://www.w3.org/2000/svg">
<path d="M68.2836 11.7156C60.7298 4.16089 50.6844 0 40 0C29.3147 0 19.2711 4.16089 11.7164 11.7156C4.16089 19.2711 0 29.3156 0 40C0 50.6844 4.16089 60.7289 11.7164 68.2844C19.2711 75.8391 29.3147 80 40 80C50.6844 80 60.7298 75.8391 68.2836 68.2844C75.8391 60.7289 80 50.6844 80 40C80 29.3156 75.8391 19.2711 68.2836 11.7156ZM14.1236 14.1227C21.0347 7.21156 30.224 3.40444 40 3.40444C49.2062 3.40444 57.8907 6.78311 64.6444 12.9493L12.9493 64.6444C6.78311 57.8907 3.40444 49.2053 3.40444 40C3.40444 30.2249 7.21156 21.0347 14.1236 14.1227ZM65.8764 65.8773C58.9644 72.7884 49.7751 76.5956 40 76.5956C30.7938 76.5956 22.1093 73.2178 15.3556 67.0516L67.0516 15.3564C73.2178 22.1102 76.5956 30.7947 76.5956 40C76.5956 49.7751 72.7884 58.9644 65.8764 65.8773Z" fill="#7367f0"/>
</svg>
