<svg xmlns="http://www.w3.org/2000/svg" width="421.123" height="485" viewBox="0 0 421.123 485">
  <path id="invoice_2_" data-name="invoice (2)" d="M238.068,322.013a105,105,0,1,0,160-89.406V101.013a7.982,7.982,0,0,0-3.19-6.382C295.481-4.766,301.912.843,298.511.169,297.322-.067,309.877.013,63.945.013a32.036,32.036,0,0,0-32,32v416a32.036,32.036,0,0,0,32,32h302a32.036,32.036,0,0,0,32-32,8,8,0,0,0-16,0,16.019,16.019,0,0,1-16,16h-302a16.019,16.019,0,0,1-16-16v-416a16.019,16.019,0,0,1,16-16h225v61a32.036,32.036,0,0,0,32,32h61.123V224.528a104.479,104.479,0,0,0-42-7.469V160.014a24.028,24.028,0,0,0-24-24h-202a24.027,24.027,0,0,0-24,24v102a24.027,24.027,0,0,0,24,24h105a8,8,0,0,0,0-16h-36v-51h72a8,8,0,0,0,8-8v-59h53a8.009,8.009,0,0,1,8,8v58.727A105.17,105.17,0,0,0,238.068,322.013Zm82.877-229a16.019,16.019,0,0,1-16-16V27.327l65.687,65.687H320.945Zm-206.877,59h53v51h-61v-43A8.009,8.009,0,0,1,114.068,152.013Zm53,118h-53a8.009,8.009,0,0,1-8-8v-43h61Zm80-67h-64v-51h64Zm185,119a89,89,0,1,1-89-89A89.1,89.1,0,0,1,432.068,322.013Zm-81,20v-3.237a7.966,7.966,0,0,0-5.614-7.636l-9.544-2.982a23.9,23.9,0,0,1-16.842-22.907v-3.237a24.039,24.039,0,0,1,16-22.624v-3.376a8,8,0,0,1,16,0v3.376a24.039,24.039,0,0,1,16,22.624,8,8,0,0,1-16,0,8,8,0,0,0-16,0v3.237a7.966,7.966,0,0,0,5.614,7.636l9.544,2.982a23.9,23.9,0,0,1,16.842,22.907v3.237a24.039,24.039,0,0,1-19,23.472v2.528a8,8,0,0,1-16,0v-4.68a24.02,24.02,0,0,1-13-21.32,8,8,0,1,1,16,0,8,8,0,0,0,16,0Zm-261-12a8,8,0,0,1,8-8h78a8,8,0,0,1,0,16h-78A8,8,0,0,1,90.068,330.013Zm0,60a8,8,0,0,1,8-8h98a8,8,0,0,1,0,16h-98A8,8,0,0,1,90.068,390.013Z" transform="translate(-29.445 2.487)" fill="#4285f4" stroke="#4285f4" stroke-width="5"/>
</svg>
