<svg width="26" height="26" viewBox="0 0 26 26" fill="none" xmlns="http://www.w3.org/2000/svg">
<path d="M24.05 1.95C22.7842 0.684211 21.1421 0 19.3289 0C17.5158 0 15.8737 0.684211 14.6079 1.95L1.95 14.6421C0.684211 15.9079 0 17.55 0 19.3289C0 21.1079 0.684211 22.7842 1.95 24.05C3.21579 25.3158 4.89211 26 6.67105 26C8.41579 26 10.0921 25.3158 11.3921 24.05L19.9789 15.4632L20.0132 15.4289C21.4842 13.7868 21.45 11.2553 19.8763 9.64737C18.2684 8.00526 15.6 8.00526 13.9921 9.64737L6.87632 16.7632C6.56842 17.0711 6.39737 17.5158 6.39737 17.9605C6.39737 18.4053 6.56842 18.85 6.87632 19.1579C7.52632 19.8079 8.62105 19.8079 9.23684 19.1579L16.2842 12.1105C16.5921 11.8026 17.1395 11.8026 17.4474 12.1105C17.7553 12.4184 17.7553 12.9658 17.4474 13.2737L8.99737 21.6895C7.73158 22.9553 5.61053 22.9553 4.31053 21.6895C3.04474 20.4237 3.04474 18.3026 4.31053 17.0026L17.0026 4.31053C18.2684 3.04474 20.3895 3.04474 21.6895 4.31053C22.3053 4.92632 22.6474 5.74737 22.6474 6.63684C22.6474 7.52632 22.3053 8.34737 21.6895 8.99737C21.3474 9.30526 21.1763 9.75 21.1763 10.1947C21.1763 10.6395 21.3816 11.0842 21.6895 11.3921C22.3395 12.0079 23.4 12.0079 24.05 11.3921C26.65 8.75789 26.65 4.55 24.05 1.95Z" fill="white"/>
</svg>
