<svg xmlns="http://www.w3.org/2000/svg" width="16.001" height="15" viewBox="0 0 16.001 15">
  <g id="home" transform="translate(-0.001 -16.014)">
    <path id="Path_157" data-name="Path 157" d="M15.855,22.909,9.636,16.69a2.316,2.316,0,0,0-3.271,0L.147,22.909a.5.5,0,0,0,.707.707l.4-.4v6.357a1.438,1.438,0,0,0,1.438,1.438h2.5A.313.313,0,0,0,5.5,30.7V26.076a1.563,1.563,0,0,1,1.563-1.563H8.939A1.563,1.563,0,0,1,10.5,26.076V30.7a.313.313,0,0,0,.313.313h2.5a1.438,1.438,0,0,0,1.438-1.438V23.219l.4.4a.5.5,0,1,0,.707-.707Z" fill="#6b6b6b"/>
  </g>
</svg>
