<svg xmlns="http://www.w3.org/2000/svg" width="23.49" height="24.283" viewBox="0 0 23.49 24.283">
  <path id="icon_duplicate" d="M10.23,0A20.487,20.487,0,0,0,3.175,1.115,7.142,7.142,0,0,0,.933,2.387,2.49,2.49,0,0,0,0,4.2c0,.113,0,13.7,0,13.722a2.513,2.513,0,0,0,.929,1.752A7.142,7.142,0,0,0,3.175,20.95a20.486,20.486,0,0,0,7.055,1.115,24.8,24.8,0,0,0,3.408-.231,5.243,5.243,0,1,0,6.821-7.946V4.2a2.488,2.488,0,0,0-.931-1.817,7.142,7.142,0,0,0-2.242-1.272A20.49,20.49,0,0,0,10.23,0Zm0,1.012a19.64,19.64,0,0,1,6.7,1.049,6.285,6.285,0,0,1,1.926,1.081,1.469,1.469,0,0,1,.6,1.063,1.465,1.465,0,0,1-.6,1.06,6.285,6.285,0,0,1-1.926,1.08,19.639,19.639,0,0,1-6.7,1.049,19.648,19.648,0,0,1-6.7-1.049,6.289,6.289,0,0,1-1.927-1.08,1.465,1.465,0,0,1-.6-1.06,1.468,1.468,0,0,1,.6-1.063A6.289,6.289,0,0,1,3.534,2.061,19.65,19.65,0,0,1,10.23,1.012Zm-9.187,5.1a7.371,7.371,0,0,0,2.132,1.18A20.487,20.487,0,0,0,10.23,8.406a20.49,20.49,0,0,0,7.055-1.115,7.375,7.375,0,0,0,2.129-1.177V8.655a1.731,1.731,0,0,1-.564.813,6.284,6.284,0,0,1-1.926,1.078,19.634,19.634,0,0,1-6.7,1.051,19.643,19.643,0,0,1-6.7-1.051A6.288,6.288,0,0,1,1.607,9.469a1.726,1.726,0,0,1-.563-.816Zm0,4.2a7.371,7.371,0,0,0,2.132,1.179,20.486,20.486,0,0,0,7.055,1.115,20.489,20.489,0,0,0,7.055-1.115,7.376,7.376,0,0,0,2.129-1.177v2.937a5.215,5.215,0,0,0-6.862,2.438c-.743.071-1.52.109-2.323.109a19.65,19.65,0,0,1-6.7-1.049,6.29,6.29,0,0,1-1.927-1.08,1.726,1.726,0,0,1-.563-.814Zm16.2,3.539a4.176,4.176,0,1,1-4.169,4.175A4.164,4.164,0,0,1,17.243,13.853Zm-16.2.665A7.373,7.373,0,0,0,3.175,15.7a20.488,20.488,0,0,0,7.055,1.115c.662,0,1.308-.025,1.934-.072a5.189,5.189,0,0,0,.7,4.174,24.439,24.439,0,0,1-2.635.14A19.649,19.649,0,0,1,3.534,20a6.291,6.291,0,0,1-1.927-1.078,1.6,1.6,0,0,1-.584-.918c.019-1.163.018-2.326.02-3.489Zm16.192.621a.525.525,0,0,0-.517.533V17.5H14.891a.525.525,0,0,0,0,1.051h1.827v1.833a.525.525,0,1,0,1.05,0V18.553H19.6a.525.525,0,0,0,0-1.051h-1.83V15.672A.525.525,0,0,0,17.235,15.139Z" transform="translate(0.5 0.5)" fill="#7367f0" stroke="#7367f0" stroke-width="1"/>
</svg>
