<svg xmlns="http://www.w3.org/2000/svg" width="4.964" height="3.022" viewBox="0 0 4.964 3.022">
  <path id="icon_downarrow" d="M3.225,3.687a.034.034,0,0,0,.05,0L5.616,1.209a.034.034,0,0,0,0-.047L5.355.886a.034.034,0,0,0-.05,0L3.25,3.061,1.195.886a.034.034,0,0,0-.05,0l-.26.276a.034.034,0,0,0,0,.047Z" transform="translate(-0.768 -0.775)" fill="#6e6b7b" stroke="#6e6b7b" stroke-linejoin="round" stroke-width="0.2"/>
</svg>
