<svg xmlns="http://www.w3.org/2000/svg" width="384" height="512" viewBox="0 0 384 512">
  <g id="invoice" transform="translate(-64)">
    <g id="Group_7" data-name="Group 7">
      <g id="Group_6" data-name="Group 6">
        <path id="Path_77" data-name="Path 77" d="M444.875,109.792,338.208,3.125A10.659,10.659,0,0,0,330.666,0h-224A42.715,42.715,0,0,0,64,42.667V469.334A42.715,42.715,0,0,0,106.667,512H405.334A42.715,42.715,0,0,0,448,469.333v-352A10.658,10.658,0,0,0,444.875,109.792ZM341.333,36.417l70.25,70.25H362.666a21.354,21.354,0,0,1-21.333-21.333Zm85.334,432.916a21.355,21.355,0,0,1-21.333,21.333H106.667a21.354,21.354,0,0,1-21.333-21.333V42.667a21.355,21.355,0,0,1,21.333-21.333H320v64A42.715,42.715,0,0,0,362.667,128h64Z" fill="#4285f4"/>
        <path id="Path_78" data-name="Path 78" d="M373.333,298.667H138.667a10.667,10.667,0,1,0,0,21.334H373.334a10.667,10.667,0,1,0,0-21.334Z" fill="#4285f4"/>
        <path id="Path_79" data-name="Path 79" d="M373.333,234.667H138.667a10.667,10.667,0,1,0,0,21.334H373.334a10.667,10.667,0,1,0,0-21.334Z" fill="#4285f4"/>
        <path id="Path_80" data-name="Path 80" d="M373.333,362.667H138.667a10.667,10.667,0,1,0,0,21.334H373.334a10.667,10.667,0,1,0,0-21.334Z" fill="#4285f4"/>
        <path id="Path_81" data-name="Path 81" d="M266.667,426.667h-128a10.667,10.667,0,1,0,0,21.334h128a10.667,10.667,0,0,0,0-21.334Z" fill="#4285f4"/>
        <path id="Path_82" data-name="Path 82" d="M234.667,181.333A10.661,10.661,0,0,0,245.334,192h128a10.667,10.667,0,0,0,0-21.334h-128A10.662,10.662,0,0,0,234.667,181.333Z" fill="#4285f4"/>
        <path id="Path_83" data-name="Path 83" d="M160,170.667H138.667a10.667,10.667,0,1,0,0,21.334h10.667a10.667,10.667,0,1,0,21.334,0v-1.965A31.922,31.922,0,0,0,160,128a10.667,10.667,0,0,1,0-21.334h21.333a10.667,10.667,0,0,0,0-21.334H170.666a10.667,10.667,0,1,0-21.334,0V87.3A31.922,31.922,0,0,0,160,149.333a10.667,10.667,0,0,1,0,21.334Z" fill="#4285f4"/>
      </g>
    </g>
  </g>
</svg>
