<svg xmlns="http://www.w3.org/2000/svg" width="19.608" height="20" viewBox="0 0 19.608 20">
  <g id="surface1" transform="translate(0.891 0)">
    <path id="Path_5" data-name="Path 5" d="M13.77,11.868A7.52,7.52,0,1,0,11.457,14L17,19.51a1.574,1.574,0,0,0,2.283-2.168c-.019-.02-.037-.038-.057-.057Zm-6.143.514a4.85,4.85,0,1,1,4.848-4.859,4.851,4.851,0,0,1-4.848,4.859Zm0,0" transform="translate(-1 0)" fill="#3c3c3c"/>
  </g>
</svg>
