<svg xmlns="http://www.w3.org/2000/svg" width="51" height="35.881" viewBox="0 0 51 35.881">
  <g id="icon_mail" transform="translate(0.5 0.5)">
    <path id="Path_66" data-name="Path 66" d="M47.034,0H2.966A2.966,2.966,0,0,0,0,2.966V31.915a2.966,2.966,0,0,0,2.966,2.966H47.034A2.966,2.966,0,0,0,50,31.915V2.966A2.966,2.966,0,0,0,47.034,0Zm.424,31.915a.424.424,0,0,1-.424.424H2.966a.424.424,0,0,1-.424-.424V2.966a.424.424,0,0,1,.424-.424H47.034a.424.424,0,0,1,.424.424Z" fill="#7367f0" stroke="#7367f0" stroke-width="1"/>
    <path id="Path_67" data-name="Path 67" d="M39.829,2.775a1.271,1.271,0,0,0-1.8-.119L24.71,14.258l-3.161,2.754-3.161-2.754L5.066,2.656A1.279,1.279,0,1,0,3.371,4.571L15.617,15.207,3.752,24.749a1.272,1.272,0,0,0,1.593,1.983l12.2-9.831c4.839,4.093,3.169,4.076,8,0l12.246,9.831a1.272,1.272,0,1,0,1.593-1.983L27.481,15.207,39.7,4.571a1.271,1.271,0,0,0,.127-1.8Z" transform="translate(3.451 2.741)" fill="#7367f0" stroke="#7367f0" stroke-width="1"/>
  </g>
</svg>
