<svg xmlns="http://www.w3.org/2000/svg" width="87.538" height="81.5" viewBox="0 0 87.538 81.5">
  <path id="icon_export" d="M.614,77.5V2a2,2,0,0,1,2-2H60.73a2,2,0,0,1,2,2V19.3a2,2,0,1,1-4,0V4H4.615V75.5H58.73V61.1a2,2,0,0,1,4,0V77.5a2,2,0,0,1-2,2H2.615A2,2,0,0,1,.614,77.5ZM30.431,40.2a2,2,0,0,1,2-2H79.355L67.818,25.957a2,2,0,0,1,2.911-2.744L85.455,38.84a2,2,0,0,1,0,2.744L70.729,57.205a2,2,0,1,1-2.91-2.744L79.379,42.2H32.431A2,2,0,0,1,30.431,40.2Z" transform="translate(0.385 1)" fill="#7367f0" stroke="#7367f0" stroke-width="2"/>
</svg>
