<svg xmlns="http://www.w3.org/2000/svg" width="21.084" height="21.084" viewBox="0 0 21.084 21.084">
  <g id="Group_72" data-name="Group 72" transform="translate(-24 1031.584) rotate(-90)">
    <rect id="Rectangle_14" data-name="Rectangle 14" width="3" height="21.084" rx="1.5" transform="translate(1019.339 24)" fill="#fff"/>
    <rect id="Rectangle_15" data-name="Rectangle 15" width="3" height="21.084" rx="1.5" transform="translate(1010.5 36.245) rotate(-90)" fill="#fff"/>
  </g>
</svg>
