<svg xmlns="http://www.w3.org/2000/svg" width="480.117" height="486.399" viewBox="0 0 480.117 486.399">
  <g id="refund" transform="translate(-0.199)">
    <path id="Path_22" data-name="Path 22" d="M252.2,0c-125.6,0-228,102.4-228,228a180.655,180.655,0,0,0,.8,20.8l16-1.6a153.988,153.988,0,0,1-.8-19.2c0-116.8,95.2-212,212-212s212,95.2,212,212c0,114.4-90.4,208-204,212l17.6-17.6-11.2-11.2L229,448.8l37.6,37.6,11.2-11.2L258.6,456C385,452,484.2,347.2,480.2,221.6,476.2,98.4,375.4,0,252.2,0Zm0,0" fill="#7367f0"/>
    <path id="Path_23" data-name="Path 23" d="M400.2,96h-288V240h288Zm-16,128h-256V112h256Zm0,0" fill="#7367f0"/>
    <path id="Path_24" data-name="Path 24" d="M256.2,200a32,32,0,1,0-32-32A32.092,32.092,0,0,0,256.2,200Zm0-48a16,16,0,1,1-16,16A16.046,16.046,0,0,1,256.2,152Zm0,0" fill="#7367f0"/>
    <path id="Path_25" data-name="Path 25" d="M160.2,144h16V128h-32v32h16Zm0,0" fill="#7367f0"/>
    <path id="Path_26" data-name="Path 26" d="M176.2,192h-16V176h-16v32h32Zm0,0" fill="#7367f0"/>
    <path id="Path_27" data-name="Path 27" d="M368.2,176h-16v16h-16v16h32Zm0,0" fill="#7367f0"/>
    <path id="Path_28" data-name="Path 28" d="M352.2,160h16V128h-32v16h16Zm0,0" fill="#7367f0"/>
    <path id="Path_29" data-name="Path 29" d="M184.2,160h24v16h-24Zm0,0" fill="#7367f0"/>
    <path id="Path_30" data-name="Path 30" d="M304.2,160h24v16h-24Zm0,0" fill="#7367f0"/>
    <path id="Path_31" data-name="Path 31" d="M48.2,344h16v24h-16Zm0,0" fill="#7367f0"/>
    <path id="Path_32" data-name="Path 32" d="M400.2,327.2c0-16-13.6-29.6-29.6-29.6a27.3,27.3,0,0,0-8,.8l-96.8,28c-.8,0-2.4.8-3.2,0l-22.4-4c15.2-8.8,20.8-28,12.8-43.2a31.4,31.4,0,0,0-28-16.8H124.2a22.559,22.559,0,0,0-12,3.2L96.2,276V264H.2V400h96V380l79.2,32.8c4.8,2.4,11.2,2.4,16,.8l187.2-58.4a28.373,28.373,0,0,0,21.6-28ZM80.2,384h-64V280h32v48h16V280h16Zm107.2,14.4a6.822,6.822,0,0,1-5.6,0l-85.6-36v-68l24-13.6c.8-.8,2.4-.8,4-.8h100a16,16,0,1,1,0,32h-56v8l-1.6,8,92,15.2c3.2.8,7.2,0,10.4-.8l96.8-28c7.2-2.4,14.4,2.4,16.8,9.6s-1.6,14.4-8.8,16.8Zm0,0" fill="#7367f0"/>
  </g>
</svg>
