<svg xmlns="http://www.w3.org/2000/svg" width="77.89" height="93.287" viewBox="0 0 77.89 93.287">
  <g id="activity_refund" transform="translate(0)">
    <path id="Path_32" data-name="Path 32" d="M44.5.453a1.218,1.218,0,0,1,.391-.322,1.166,1.166,0,0,1,.975-.046,1.205,1.205,0,0,1,.418.284A1.264,1.264,0,0,1,46.554.8a1.307,1.307,0,0,1-.044,1.015,1.254,1.254,0,0,1-.309.408l-8.69,9.06H76.235a1.193,1.193,0,0,1,.816.392,1.3,1.3,0,0,1,0,1.738,1.192,1.192,0,0,1-.816.392H37.511l8.7,9.049a1.323,1.323,0,0,1,0,1.774,1.2,1.2,0,0,1-.391.273,1.158,1.158,0,0,1-.922,0,1.2,1.2,0,0,1-.391-.273L33.746,13.422a1.235,1.235,0,0,1-.268-.4,1.278,1.278,0,0,1,0-.964,1.233,1.233,0,0,1,.268-.4Z" fill="#fff"/>
    <path id="Path_33" data-name="Path 33" d="M26.014,25A39.829,39.829,0,0,0,8.58,28.638c-4.522,2.261-7.545,5.5-7.545,9.324-.056,13.292-.027,27.821-.027,41.391,0,3.8,3.017,7.034,7.545,9.3a39.936,39.936,0,0,0,17.462,3.638,41.685,41.685,0,0,0,15.468-2.776A24.15,24.15,0,1,0,52.746,44c-.589,0-1.173.039-1.751.081.027-4.392.027-2.668,0-6.117,0-3.82-3.023-7.063-7.545-9.324A39.829,39.829,0,0,0,26.014,25Zm0,1.752A38.327,38.327,0,0,1,42.695,30.2c4.216,2.108,6.6,4.914,6.6,7.761s-2.385,5.652-6.6,7.761a38.344,38.344,0,0,1-16.68,3.422A38.471,38.471,0,0,1,9.307,45.722c-4.217-2.108-6.575-4.914-6.575-7.761S5.091,32.309,9.307,30.2A38.454,38.454,0,0,1,26.014,26.752ZM2.732,42.731A16.533,16.533,0,0,0,8.58,47.258,39.832,39.832,0,0,0,26.014,50.9a44.531,44.531,0,0,0,11.452-1.455A24.209,24.209,0,0,0,30.272,59.3c-1.383.128-2.8.215-4.258.215A38.357,38.357,0,0,1,9.334,56.07c-4.212-2.106-6.6-4.893-6.6-7.761Zm46.538.027V44.24c-.583.084-1.156.2-1.725.323A12.413,12.413,0,0,0,49.27,42.758Zm3.476,2.964a22.42,22.42,0,1,1-22.42,22.42A22.407,22.407,0,0,1,52.746,45.722Zm-.108,6.009a.862.862,0,0,0-.755.889V56.1A8.4,8.4,0,0,0,47.3,57.768a6.017,6.017,0,0,0-2.317,4.77A5.01,5.01,0,0,0,47.6,66.984a24.824,24.824,0,0,0,4.285,1.725v9.728c-2.6-.221-4.622-1.428-5.2-3.341a.87.87,0,1,0-1.671.485c.849,2.807,3.7,4.341,6.872,4.581v3.5a.862.862,0,1,0,1.725,0V80.188a8.464,8.464,0,0,0,4.581-1.7,5.964,5.964,0,0,0,2.317-4.743,5.054,5.054,0,0,0-2.614-4.473,24.816,24.816,0,0,0-4.285-1.725v-9.7c2.6.217,4.622,1.4,5.2,3.315a.87.87,0,1,0,1.671-.485c-.849-2.807-3.7-4.318-6.872-4.554v-3.5a.862.862,0,0,0-.97-.889ZM2.732,53.079a16.383,16.383,0,0,0,5.821,4.527,39.921,39.921,0,0,0,17.462,3.638c1.238,0,2.449-.072,3.638-.162a24.045,24.045,0,0,0-1.051,7.06c0,.552.017,1.1.054,1.644-.866.05-1.744.081-2.641.081a38.358,38.358,0,0,1-16.68-3.449c-4.212-2.106-6.6-4.893-6.6-7.761V53.079Zm49.152,4.77V66.9a21.317,21.317,0,0,1-3.422-1.4,2.989,2.989,0,0,1-1.752-2.964,4.2,4.2,0,0,1,1.671-3.422A6.64,6.64,0,0,1,51.884,57.849ZM2.732,63.427a16.384,16.384,0,0,0,5.821,4.527,39.924,39.924,0,0,0,17.462,3.638c.962,0,1.9-.028,2.829-.081a23.972,23.972,0,0,0,2.8,8.354,44.969,44.969,0,0,1-5.632.35,38.358,38.358,0,0,1-16.68-3.449c-4.212-2.106-6.6-4.893-6.6-7.761V63.426Zm50.876,5.928a21.316,21.316,0,0,1,3.422,1.4,3.027,3.027,0,0,1,1.752,2.991,4.148,4.148,0,0,1-1.671,3.4,6.706,6.706,0,0,1-3.5,1.294ZM2.732,73.774A16.382,16.382,0,0,0,8.553,78.3a39.922,39.922,0,0,0,17.462,3.638,46.709,46.709,0,0,0,6.6-.485,24.3,24.3,0,0,0,7.006,6.952,41.533,41.533,0,0,1-13.608,2.156,38.373,38.373,0,0,1-16.68-3.449c-4.215-2.106-6.6-4.894-6.6-7.761Z" fill="#fff"/>
    <path id="Path_34" data-name="Path 34" d="M26.014,25A39.829,39.829,0,0,0,8.58,28.638c-4.522,2.261-7.545,5.5-7.545,9.324-.056,13.292-.027,27.821-.027,41.391,0,3.8,3.017,7.034,7.545,9.3a39.936,39.936,0,0,0,17.462,3.638,41.685,41.685,0,0,0,15.468-2.776A24.15,24.15,0,1,0,52.746,44c-.589,0-1.173.039-1.751.081.027-4.392.027-2.668,0-6.117,0-3.82-3.023-7.063-7.545-9.324A39.829,39.829,0,0,0,26.014,25Zm0,1.752A38.327,38.327,0,0,1,42.695,30.2c4.216,2.108,6.6,4.914,6.6,7.761s-2.385,5.652-6.6,7.761a38.344,38.344,0,0,1-16.68,3.422A38.471,38.471,0,0,1,9.307,45.722c-4.217-2.108-6.575-4.914-6.575-7.761S5.091,32.309,9.307,30.2A38.454,38.454,0,0,1,26.014,26.752ZM2.732,42.731A16.533,16.533,0,0,0,8.58,47.258,39.832,39.832,0,0,0,26.014,50.9a44.531,44.531,0,0,0,11.452-1.455A24.209,24.209,0,0,0,30.272,59.3c-1.383.128-2.8.215-4.258.215A38.357,38.357,0,0,1,9.334,56.07c-4.212-2.106-6.6-4.893-6.6-7.761Zm46.538.027V44.24c-.583.084-1.156.2-1.725.323A12.413,12.413,0,0,0,49.27,42.758Zm3.476,2.964a22.42,22.42,0,1,1-22.42,22.42A22.407,22.407,0,0,1,52.746,45.722Zm-.108,6.009a.862.862,0,0,0-.755.889V56.1A8.4,8.4,0,0,0,47.3,57.768a6.017,6.017,0,0,0-2.317,4.77A5.01,5.01,0,0,0,47.6,66.984a24.824,24.824,0,0,0,4.285,1.725v9.728c-2.6-.221-4.622-1.428-5.2-3.341a.87.87,0,1,0-1.671.485c.849,2.807,3.7,4.341,6.872,4.581v3.5a.862.862,0,1,0,1.725,0V80.188a8.464,8.464,0,0,0,4.581-1.7,5.964,5.964,0,0,0,2.317-4.743,5.054,5.054,0,0,0-2.614-4.473,24.816,24.816,0,0,0-4.285-1.725v-9.7c2.6.217,4.622,1.4,5.2,3.315a.87.87,0,1,0,1.671-.485c-.849-2.807-3.7-4.318-6.872-4.554v-3.5a.862.862,0,0,0-.97-.889ZM2.732,53.079a16.383,16.383,0,0,0,5.821,4.527,39.921,39.921,0,0,0,17.462,3.638c1.238,0,2.449-.072,3.638-.162a24.045,24.045,0,0,0-1.051,7.06c0,.552.017,1.1.054,1.644-.866.05-1.744.081-2.641.081a38.358,38.358,0,0,1-16.68-3.449c-4.212-2.106-6.6-4.893-6.6-7.761V53.079Zm49.152,4.77V66.9a21.317,21.317,0,0,1-3.422-1.4,2.989,2.989,0,0,1-1.752-2.964,4.2,4.2,0,0,1,1.671-3.422A6.64,6.64,0,0,1,51.884,57.849ZM2.732,63.427a16.384,16.384,0,0,0,5.821,4.527,39.924,39.924,0,0,0,17.462,3.638c.962,0,1.9-.028,2.829-.081a23.972,23.972,0,0,0,2.8,8.354,44.969,44.969,0,0,1-5.632.35,38.358,38.358,0,0,1-16.68-3.449c-4.212-2.106-6.6-4.893-6.6-7.761V63.426Zm50.876,5.928a21.316,21.316,0,0,1,3.422,1.4,3.027,3.027,0,0,1,1.752,2.991,4.148,4.148,0,0,1-1.671,3.4,6.706,6.706,0,0,1-3.5,1.294ZM2.732,73.774A16.382,16.382,0,0,0,8.553,78.3a39.922,39.922,0,0,0,17.462,3.638,46.709,46.709,0,0,0,6.6-.485,24.3,24.3,0,0,0,7.006,6.952,41.533,41.533,0,0,1-13.608,2.156,38.373,38.373,0,0,1-16.68-3.449c-4.215-2.106-6.6-4.894-6.6-7.761Z" fill="none" stroke="#fff" stroke-width="2"/>
  </g>
</svg>
