<svg xmlns="http://www.w3.org/2000/svg" width="127.45" height="109.758" viewBox="0 0 127.45 109.758">
  <g id="Group" transform="translate(-0.486 -0.279)">
    <path id="Path_9" data-name="Path 9" d="M30.107,6.949,28.228,5.071a2.106,2.106,0,0,0-2.952,0l-10.6,10.6-4.83-4.83a2.106,2.106,0,0,0-2.952,0L5.016,12.719A2.039,2.039,0,0,0,4.882,15.4L13.2,25.734a1.955,1.955,0,0,0,3.086,0l13.954-16.1A1.908,1.908,0,0,0,30.107,6.949Z" transform="translate(13.72 14.53)" fill="#fff"/>
    <path id="Path_10" data-name="Path 10" d="M51.13,12.666V7.7a1.2,1.2,0,0,0-1.208-1.208h-37.3A1.2,1.2,0,0,0,11.413,7.7v4.965a1.2,1.2,0,0,0,1.208,1.208h37.3A1.2,1.2,0,0,0,51.13,12.666Z" transform="translate(37.913 21.564)" fill="#fff"/>
    <path id="Path_11" data-name="Path 11" d="M30.107,12.594l-1.878-1.879a2.106,2.106,0,0,0-2.952,0l-10.6,10.6-4.83-4.83a2.106,2.106,0,0,0-2.952,0L5.016,18.363a2.039,2.039,0,0,0-.134,2.684L13.2,31.379a1.955,1.955,0,0,0,3.086,0l13.954-16.1A1.911,1.911,0,0,0,30.107,12.594Z" transform="translate(13.72 34.115)" fill="#fff"/>
    <path id="Path_12" data-name="Path 12" d="M12.621,12.138a1.2,1.2,0,0,0-1.208,1.208v5.1a1.2,1.2,0,0,0,1.208,1.208H44.153l4.7-7.514Z" transform="translate(37.913 41.146)" fill="#fff"/>
    <path id="Path_13" data-name="Path 13" d="M28.259,16.389a2.106,2.106,0,0,0-2.952,0l-10.6,10.6-4.83-4.965a2.106,2.106,0,0,0-2.952,0L5.046,23.9a2.039,2.039,0,0,0-.134,2.684l8.319,10.332a2.042,2.042,0,0,0,3.086,0l13.954-16.1A2.075,2.075,0,0,0,30.137,18Z" transform="translate(13.825 53.801)" fill="#fff"/>
    <path id="Path_14" data-name="Path 14" d="M11.413,18.989v5.1A1.2,1.2,0,0,0,12.621,25.3H36.236l-.805-7.514H12.621A1.2,1.2,0,0,0,11.413,18.989Z" transform="translate(37.913 60.727)" fill="#fff"/>
    <path id="Path_15" data-name="Path 15" d="M98.973,88.3v7.782a6.3,6.3,0,0,1-6.306,6.306H14.575a6.3,6.3,0,0,1-6.306-6.306V14.5A6.3,6.3,0,0,1,14.575,8.2H92.667A6.3,6.3,0,0,1,98.973,14.5V33.824l7.782-12.344V14.368A14.087,14.087,0,0,0,92.667.279H14.575A14.087,14.087,0,0,0,.486,14.368v81.58a14.087,14.087,0,0,0,14.089,14.089H92.667a14.087,14.087,0,0,0,14.089-14.089V75.822L98.973,88.3C99.107,88.166,99.107,88.3,98.973,88.3Z" transform="translate(0 0)" fill="#fff"/>
    <path id="Path_16" data-name="Path 16" d="M42.067,11.581,32.272,5.409a2.443,2.443,0,0,0-3.489.805l-3.891,5.9L38.98,20.974l3.757-6.038A2.2,2.2,0,0,0,42.067,11.581Z" transform="translate(84.68 16.346)" fill="#fff"/>
    <path id="Path_17" data-name="Path 17" d="M18.176,22.154l.94,9.393a2.563,2.563,0,0,0,3.354,2.147l8.856-3.22A2.536,2.536,0,0,0,32.668,29.4l2.684-4.294L21.263,16.25l-2.684,4.294A1.855,1.855,0,0,0,18.176,22.154Z" transform="translate(61.205 55.414)" fill="#fff"/>
    <path id="Path_18" data-name="Path 18" d="M19.549,40.629l14.089,8.855,20.8-32.873L40.212,7.755Z" transform="translate(66.142 25.938)" fill="#fff"/>
  </g>
</svg>
