<svg xmlns="http://www.w3.org/2000/svg" width="71" height="87" viewBox="0 0 71 87">
  <path id="icon_comment" d="M52.718,47.62A42.392,42.392,0,0,0,41.589,29.457l-.393-.379.349-.421a16.889,16.889,0,0,0,3.971-11.041C45.517,7.881,37.356,0,27.319,0,17.238,0,9.077,7.881,9.077,17.615a17.5,17.5,0,0,0,4.015,11.041l.349.421L13,29.5C4.189,37.717,0,49.222,0,60.937,0,65.32,5.8,67.3,9.339,68.228A66.166,66.166,0,0,0,23.391,70.04h.393l.175.337a14.882,14.882,0,0,0,1.964,3.161l.306.295-.218.379a28.078,28.078,0,0,1-3.448,4.931,3.331,3.331,0,0,0-.393,4.088,3.431,3.431,0,0,0,3.1,1.77,1.534,1.534,0,0,0,.611-.084h.087a54.142,54.142,0,0,0,11.957-3.877l.218-.084L38.36,81a29.625,29.625,0,0,0,7.463.885,28.237,28.237,0,0,0,14.532-3.835,17.638,17.638,0,0,0,8.03-9.524A14,14,0,0,0,69,64.477c.218-8.6-7.943-14.5-15.841-16.435l-.349-.084ZM27.406,3.751A14.248,14.248,0,0,1,41.851,17.7,14.221,14.221,0,0,1,27.406,31.649,14.221,14.221,0,0,1,12.961,17.7,14.248,14.248,0,0,1,27.406,3.751ZM22.693,64.561a4.3,4.3,0,0,0,.087,1.054l.218.8-.873-.042A57.2,57.2,0,0,1,8.772,64.308c-1.266-.421-4.931-1.644-4.931-3.371,0-10.83,3.84-21.45,12.045-28.993l.393-.379.436.337a18.75,18.75,0,0,0,21.209,0l.437-.337.393.379a37.827,37.827,0,0,1,9.557,14.37l.306.843H47.7c-.611,0-1.178-.084-1.789-.084a28.612,28.612,0,0,0-14.532,3.919A17.891,17.891,0,0,0,23.3,60.6,13.427,13.427,0,0,0,22.693,64.561Zm4.19,15.424a37.841,37.841,0,0,0,3.4-5.436,1.817,1.817,0,0,0-.349-2.107,11.35,11.35,0,0,1-3.448-7.881,9.7,9.7,0,0,1,.306-2.486c.917-3.5,3.579-6.237,6.677-8.091A25,25,0,0,1,45.91,50.823a24.676,24.676,0,0,1,12.438,3.161c3.1,1.812,5.761,4.551,6.633,8.049a9.484,9.484,0,0,1,0,5.1c-.873,3.456-3.535,6.195-6.633,8.049A24.676,24.676,0,0,1,45.91,78.342a26.75,26.75,0,0,1-7.332-1.011,1.992,1.992,0,0,0-1.309.126,54.211,54.211,0,0,1-9.688,3.5l-1.833.464Z" transform="translate(1 1)" fill="#fff" stroke="#fff" stroke-width="2" fill-rule="evenodd"/>
</svg>
